<?xml version="1.0" standalone="no"?>
<svg
  width="600"
  height="600"
  viewBox="0 0 600 600"
  xmlns="http://www.w3.org/2000/svg"
>
  <g transform="translate(300,300)">
    <path d="M205.7,-68.7C228.1,2.2,181.4,93.7,109.8,144.1C38.2,194.4,-58.2,203.6,-111.9,162.6C-165.5,121.6,-176.4,30.3,-150.7,-45.1C-124.9,-120.6,-62.5,-180.3,14.6,-185C91.6,-189.8,183.2,-139.5,205.7,-68.7Z" fill="#ff6347" />
  </g>
</svg>
  